Project 1
…
library(dplyr)
library(readr)
countrypops <- read_csv("countrypops.csv")
countrypopulation <- countrypops %>% arrange(year) %>% filter(country_name == 
    "India" | country_name == "Canada" | country_name == "Germany" | 
    country_name == "Argentina" | country_name == "Belgium" | 
    country_name == "Brazil" | country_name == "China" | country_name == 
    "Australia" | country_name == "France" | country_name == 
    "Spain") %>% filter(year == "1970" | year == "1980" | year == 
    "1990" | year == "2000" | year == "2010") %>% select(year, 
    country_name, country_code_2, population) %>% rename(Country = country_name, 
    `Country Code` = country_code_2, Year = year)
countrypopulation

## # A tibble: 50 x 4
##     Year Country   `Country Code` population
##    <dbl> <chr>     <chr>               <dbl>
##  1  1970 Argentina AR               23973058
##  2  1970 Australia AU               12507000
##  3  1970 Belgium   BE                9655549
##  4  1970 Brazil    BR               95326793
##  5  1970 Canada    CA               21324000
##  6  1970 China     CN              818315000
##  7  1970 Germany   DE               78169289
##  8  1970 Spain     ES               33814531
##  9  1970 France    FR               52035095
## 10  1970 India     IN              553578513
## # … with 40 more rows
…
    "Nigeria", "Norway", "Panama", "Paraguay", "Peru", "Philippines", 
    "Poland", "Portugal", "Romania", "Russia", "Singapore", "SouthAfrica", 
    "Spain", "SriLanka", "Sweden", "Switzerland", "Taiwan", "Thailand", 
    "Tunisia", "Turkey", "UK", "Uruguay", "US", "Venezuela", 
    "Zambia", "Zimbabwe"), names_to = "Country", values_to = "count") %>% 
    filter(year == "1970" | year == "1980" | year == "1990" | 
        year == "2000" | year == "2010") %>% filter(Country == 
    "India" | Country == "Brazil" | Country == "Canada" | Country == 
    "China" | Country == "Germany" | Country == "Belgium" | Country == 
    "Argentina" | Country == "Australia" | Country == "France" | 
    Country == "Spain") %>% select(Country, year, count) %>% 
    rename(`Banking Crises` = count, Year = year)
bankingcrisis

## # A tibble: 50 x 3
##    Country    Year `Banking Crises`
##    <chr>     <dbl>            <dbl>
##  1 Argentina  1970                0
##  2 Australia  1970                0
##  3 Belgium    1970                0
##  4 Brazil     1970                0
##  5 Canada     1970                0
##  6 China      1970                0
##  7 France     1970                0
##  8 Germany    1970                0
##  9 India      1970                0
## 10 Spain      1970                0
## # … with 40 more rows

library(readr)
mvprod <- read_csv("mvprod.csv")
vehicleProduction <- mvprod %>% arrange(year) %>% filter(country == 
    "India" | country == "Canada" | country == "Germany" | country == 
    "Brazil" | country == "China" | country == "Belgium" | country == 
    "Argentina" | country == "Australia" | country == "France" | 
    country == "Spain") %>% filter(year == "1970" | year == "1980" | 
    year == "1990" | year == "2000" | year == "2010") %>% select(year, 
    country, value) %>% rename(`Cars Produced` = value, Year = year, 
    Country = country)
vehicleProduction

## # A tibble: 50 x 3
##     Year Country   `Cars Produced`
##    <dbl> <chr>               <dbl>
##  1  1970 Argentina          219599
##  2  1970 Australia          475000
##  3  1970 Belgium            296000
##  4  1970 Brazil             192841
##  5  1970 Canada            1159504
##  6  1970 China               87166
##  7  1970 France            2750086
##  8  1970 Germany           3842247
##  9  1970 India               76409
## 10  1970 Spain              539132
## # … with 40 more rows
…
    "1995", "1996", "1997", "1998", "1999", "2000", "2001", "2002", 
    "2003", "2004", "2005", "2006", "2007", "2008", "2009", "2010", 
    "2011", "2012", "2013", "2014", "2015"), names_to = "year", 
    values_to = "count") %>% arrange(year) %>% rename(country = X1) %>% 
    filter(country == "India" | country == "Canada" | country == 
        "Germany" | country == "Brazil" | country == "China" | 
        country == "Belgium" | country == "Argentina" | country == 
        "Australia" | country == "France" | country == "Spain") %>% 
    filter(year == "1970" | year == "1980" | year == "1990" | 
        year == "2000" | year == "2010") %>% select(year, country, 
    count) %>% mutate(year = as.numeric(year)) %>% rename(Year = year, 
    Country = country, `Terrorism Deaths` = count) %>% arrange(Year)
DeathsFromTerrorism

## # A tibble: 50 x 3
##     Year Country   `Terrorism Deaths`
##    <dbl> <chr>                  <dbl>
##  1  1970 Argentina                  5
##  2  1970 Australia                  0
##  3  1970 Belgium                    0
##  4  1970 Brazil                     2
##  5  1970 Canada                     1
##  6  1970 China                      0
##  7  1970 France                     0
##  8  1970 Germany                    0
##  9  1970 India                      0
## 10  1970 Spain                      0
## # … with 40 more rows

Tidying the data was done to allow me to easily join the data sets later on. I had to use pivot_longer on the bankingCrises data set and the nkill_byCountryYr data set in order to turn the countries from a row into a column and to turn the years from a row into a column, respectively. I also used the dplyr functions filter(), select(), and arrange() to organize my data sets so that I could get better understanding for how I wanted to join them and so that I could use the full_join() function later without having to worry about getting rid of extraneous columns when joining.

Joining/Merging the Data

OverallTable <- countrypopulation %>% full_join(vehicleProduction) %>% 
    full_join(bankingcrisis) %>% full_join(DeathsFromTerrorism)
OverallTable

## # A tibble: 50 x 7
##     Year Country `Country Code` population `Cars Produced` `Banking Crises`
##    <dbl> <chr>   <chr>               <dbl>           <dbl>            <dbl>
##  1  1970 Argent… AR               23973058          219599                0
##  2  1970 Austra… AU               12507000          475000                0
##  3  1970 Belgium BE                9655549          296000                0
##  4  1970 Brazil  BR               95326793          192841                0
##  5  1970 Canada  CA               21324000         1159504                0
##  6  1970 China   CN              818315000           87166                0
##  7  1970 Germany DE               78169289         3842247                0
##  8  1970 Spain   ES               33814531          539132                0
##  9  1970 France  FR               52035095         2750086                0
## 10  1970 India   IN              553578513           76409                0
## # … with 40 more rows, and 1 more variable: `Terrorism Deaths` <dbl>

I decided to use full_join because it allowed me to combine all of the observations based on both year and country, thus condensing the table and allowing me to add the subsequent columns (variables) alongside for each data set. I already tidied up my individual data sets up prior to joining them so no rows(observations) were lost. This is why I used the filter() function prior so that I could choose which countries I wanted in my overall data set and which years I wanted in my overall data set. I used the select() function prior as well so that I could manually remove all of the unwanted variables. full_join() worked because I did all of this prior organizing.

Wrangling the Data

OverallTable_mutated <- OverallTable %>% mutate(`Percent of Population Killed` = (`Terrorism Deaths`/population) * 
    100) %>% arrange(Year)
OverallTable_mutated

## # A tibble: 50 x 8
##     Year Country `Country Code` population `Cars Produced` `Banking Crises`
##    <dbl> <chr>   <chr>               <dbl>           <dbl>            <dbl>
##  1  1970 Argent… AR               23973058          219599                0
##  2  1970 Austra… AU               12507000          475000                0
##  3  1970 Belgium BE                9655549          296000                0
##  4  1970 Brazil  BR               95326793          192841                0
##  5  1970 Canada  CA               21324000         1159504                0
##  6  1970 China   CN              818315000           87166                0
##  7  1970 Germany DE               78169289         3842247                0
##  8  1970 Spain   ES               33814531          539132                0
##  9  1970 France  FR               52035095         2750086                0
## 10  1970 India   IN              553578513           76409                0
## # … with 40 more rows, and 2 more variables: `Terrorism Deaths` <dbl>, `Percent
## #   of Population Killed` <dbl>
…
As I previously stated, the summarize and group_by functions I used above give me more of an understanding for the statistics of my data. When grouped by country China and India had the largest mean populations of 1,107,017,000 people and 880,905,423 people, respectively. China then had also the second highest mean car production per year of 4,230,505 cars, beat only by Germany who produced a mean amount of cars of 4,825,990 cars. India had the highest maximum deaths in a year due to terrorist attacks, 907 deaths. Grouped by year, mean population in countries increases each year from 1970 to 2010.

Visualizing the Data

library(ggplot2)
correlationmat <- OverallTable %>% select_if(is.numeric) %>% 
    cor(use = "pair")
tidycorrelations <- correlationmat %>% as.data.frame %>% rownames_to_column("var1") %>% 
    pivot_longer(-1, names_to = "var2", values_to = "correlation")
tidycorrelations

## # A tibble: 25 x 3
##    var1       var2             correlation
##    <chr>      <chr>                  <dbl>
##  1 Year       Year                   1    
##  2 Year       population             0.124
##  3 Year       Cars Produced          0.338
##  4 Year       Banking Crises         0.221
##  5 Year       Terrorism Deaths       0.160
##  6 population Year                   0.124
##  7 population population             1    
##  8 population Cars Produced          0.269
##  9 population Banking Crises        -0.223
## 10 population Terrorism Deaths       0.505
## # … with 15 more rows
…
