Project 2: Modeling, Testing, and Predicting
…
library(tidyverse)
library(dplyr)
library(readr)
countrypops <- read_csv("countrypops.csv")
countrypopulation<- countrypops %>% 
  arrange(year) %>% 
  filter(country_name=="India"| country_name== "Canada"|country_name== "Germany"|country_name=="Argentina"| country_name=="Belgium"| country_name=="Brazil"| country_name=="China"|country_name=="Australia"|country_name=="France"|country_name=="Spain"|country_name=="Mexico"|country_name=="Italy"|country_name=="Japan") %>%
  filter(year=="1960"|year=="1970"|year=="1980"|year=="1990"|year=="1995"|year=="2000"|year=="2005"|year=="2010") %>% 
  select(year, country_name,country_code_2, population)%>%
  rename("Country"=country_name, "Country Code"=country_code_2, "Year"=year)
countrypopulation

## # A tibble: 104 x 4
##     Year Country   `Country Code` population
##    <dbl> <chr>     <chr>               <dbl>
##  1  1960 Argentina AR               20619075
##  2  1960 Australia AU               10276477
##  3  1960 Belgium   BE                9153489
##  4  1960 Brazil    BR               72207554
##  5  1960 Canada    CA               17909009
##  6  1960 China     CN              667070000
##  7  1960 Germany   DE               72814900
##  8  1960 Spain     ES               30455000
##  9  1960 France    FR               46814237
## 10  1960 India     IN              449480608
## # … with 94 more rows

library(readr)
bankingCrises <- read_csv("bankingCrises.csv")
bankingcrisis<- bankingCrises%>%
  arrange(year) %>%
  pivot_longer(c("Algeria","Angola","Argentina", "Australia","Austria", "Belgium", "Bolivia", "Brazil", "Canada", "CentralAfricanRep","Chile", "China", "Colombia","CostaRica", "CoteDIvoire", "Denmark", "DominicanRepublic", "Ecuador", "Egypt","ElSalvador","Finland", "France", "Germany","Ghana","Greece", "Guatemala","Honduras","Hungary","Iceland","India", "Indonesia", "Ireland", "Italy","Japan","Kenya", "Korea", "Malaysia", "Mauritius", "Mexico", "Morocco", "Myanmar", "Netherlands", "NewZealand", "Nicaragua", "Nigeria", "Norway", "Panama", "Paraguay", "Peru","Philippines","Poland", "Portugal", "Romania", "Russia", "Singapore", "SouthAfrica", "Spain", "SriLanka", "Sweden", "Switzerland", "Taiwan", "Thailand", "Tunisia", "Turkey", "UK","Uruguay","US","Venezuela", "Zambia","Zimbabwe"), names_to="Country", values_to="count")%>%
  filter(year=="1960"|year=="1970"|year=="1980"|year=="1990"|year=="1995"|year=="2000"|year=="2005"|year=="2010")%>%
  filter(Country=="India"|Country=="Brazil"|Country=="Canada"|Country=="China"|Country=="Germany" | Country=="Belgium"|Country=="Argentina"|Country=="Australia"|Country=="France"|Country=="Spain"|Country=="Mexico"|Country=="Italy"|Country=="Japan")%>% 
  select(Country, year, count)%>% 
  rename("Banking Crises"=count, "Year"=year)
bankingcrisis

## # A tibble: 104 x 3
##    Country    Year `Banking Crises`
##    <chr>     <dbl>            <dbl>
##  1 Argentina  1960                0
##  2 Australia  1960                0
##  3 Belgium    1960                0
##  4 Brazil     1960                0
##  5 Canada     1960                0
##  6 China      1960                0
##  7 France     1960                0
##  8 Germany    1960                0
##  9 India      1960                0
## 10 Italy      1960                0
## # … with 94 more rows

library(readr)
mvprod <- read_csv("mvprod.csv")
vehicleProduction<- mvprod %>%
  arrange(year)%>%
  filter(country=="India"|country=="Canada"|country== "Germany"|country=="Brazil"|country=="China"| country=="Belgium"| country=="Argentina"| country=="Australia"| country=="France"|country=="Spain"|country=="Mexico"|country=="Italy"|country=="Japan")%>%
  filter(year=="1960"|year=="1970"|year=="1980"|year=="1990"|year=="1995"|year=="2000"|year=="2005"|year=="2010")%>%
  select(year, country, value)%>%
  rename("Cars Produced"=value, "Year"=year, "Country"=country)
vehicleProduction

## # A tibble: 104 x 3
##     Year Country   `Cars Produced`
##    <dbl> <chr>               <dbl>
##  1  1960 Argentina           89000
##  2  1960 Australia          204000
##  3  1960 Belgium              1000
##  4  1960 Brazil              49807
##  5  1960 Canada             397739
##  6  1960 China               22574
##  7  1960 France            1369210
##  8  1960 Germany           2056149
##  9  1960 India               51136
## 10  1960 Italy              644633
## # … with 94 more rows
…
